1,12/12/2016,11:00,12:00,34,156
1,13/12/2016,11:00,12:00,34,156
1,14/12/2016,11:00,12:00,34,156
1,15/12/2016,11:00,12:00,45,156
1,16/12/2016,11:00,12:00,34,156
1,19/12/2016,11:00,12:00,45,156
1,20/12/2016,11:00,12:00,34,156
1,21/12/2016,11:00,12:00,34,155
1,22/12/2016,11:00,12:00,34,156
2,12/12/2016,12:00,13:00,34,156
2,13/12/2016,12:00,13:00,45 ,156
2,14/12/2016,12:00,13:00,34,156
2,15/12/2016,12:00,13:00,45,156
2,16/12/2016,12:00,13:00,34,156
2,17/12/2016,12:00,13:00,45,156

